[
  {
    "id": 1,
    "title": "acer Extensa 15 Pentium Quad Core - (4 GB/1 TB HDD/Windows 11 Home) EX215-31 Laptop",
    "price": "₹22,990",
    "category": "electronics",
    "type": "computer",
    "description": [
      "Intel Pentium Quad Core Processor",
      "4 GB DDR4 RAM",
      "64 bit Windows 11 Operating System",
      "1 TB HDD",
      "39.62 cm (15.6 inch) Display",
      "Acer Care Center, Quick Access, Acer Product Registration",
      "1 Year International Travelers Warranty (ITW)"
    ],
    "image": "https://rukminim1.flixcart.com/image/312/312/l1fc0i80/computer/r/q/z/-original-imagczgsj7zwuyqz.jpeg?q=70",
    "rating": { "rate": 3.4, "count": 57 }
  },
  {
    "id": 2,
    "title": "acer Aspire 7 Core i5 12th Gen - (8 GB/512 GB SSD/Windows 11 Home/4 GB Graphics/NVIDIA GeForce RTX 3050) A715-51G Gaming Laptop",
    "price": "₹69,990",
    "category": "electronics",
    "type": "computer",
    "description": [
      "Intel Core i5 Processor (12th Gen)",
      "8 GB DDR4 RAM",
      "64 bit Windows 11 Operating System",
      "512 GB SSD",
      "39.62 cm (15.6 inch) Display",
      "1 Year International Travelers Warranty (ITW)"
    ],
    "image": "https://rukminim1.flixcart.com/image/312/312/xif0q/computer/t/t/m/-original-imaghkcjwpmszxtg.jpeg?q=70",
    "rating": { "rate": 4.3, "count": 178 }
  },
  {
    "id": 3,
    "title": "ASUS VivoBook 15 (2022) Core i3 10th Gen - (8 GB/512 GB SSD/Windows 11 Home) X515JA-EJ362WS | X515JA-EJ392WS Thin and Light Laptop",
    "category": "electronics",
    "price": "₹32,990",
    "type": "computer",
    "description": [
      "Intel Core i3 Processor (10th Gen)",
      "8 GB DDR4 RAM",
      "64 bit Windows 11 Operating System",
      "512 GB SSD",
      "39.62 cm (15.6 inch) Display",
      "Office Home and Student 2021",
      "1 Year Onsite Warranty"
    ],
    "image": "https://rukminim1.flixcart.com/image/312/312/kp2y2kw0/computer/y/0/c/na-thin-and-light-laptop-asus-original-imag3ebnzawky4kn.jpeg?q=70",
    "rating": { "rate": 4.3, "count": 7752 }
  },
  {
    "id": 4,
    "title": "RedmiBook Pro Core i3 11th Gen - (8 GB/256 GB SSD/Windows 11 Home) Thin and Light Laptop",
    "price": "₹29,990",
    "category": "electronics",
    "type": "computer",
    "description": [
      "Intel Core i3 Processor (11th Gen)",
      "8 GB DDR4 RAM",
      "Windows 11 Operating System",
      "256 GB SSD",
      "39.62 cm (15.6 inch) Display",
      "MS Office Home & Student 2019, Mi Smart Share, DTS Audio processing",
      "1 Year Onsite Warranty"
    ],
    "image": "https://rukminim1.flixcart.com/image/312/312/krxtrww0/computer/e/l/c/redmibook-15-e-learning-edition-thin-and-light-laptop-redmi-original-imag5m8jkjbaybeu.jpeg?q=70",
    "rating": { "rate": 4.2, "count": 3186 }
  },
  {
    "id": 5,
    "title": "APPLE 2020 Macbook Air M1 - (8 GB/256 GB SSD/Mac OS Big Sur) MGN63HN/A",
    "price": "₹91,990",
    "category": "electronics",
    "type": "computer",
    "description": [
      "Apple M1 Processor",
      "8 GB DDR4 RAM",
      "Mac OS Operating System",
      "256 GB SSD",
      "33.78 cm (13.3 inch) Display",
      "Built-in Apps: iMovie, Siri, GarageBand, Pages, Numbers, Photos, Keynote, Safari, Mail, FaceTime, Messages, Maps, Stocks, Home, Voice Memos, Notes, Calendar, Contacts, Reminders, Photo Booth, Preview, Books, App Store, Time Machine, TV, Music, Podcasts, Find My, QuickTime Player",
      "1 Year Limited Warranty"
    ],
    "image": "https://rukminim1.flixcart.com/image/312/312/kp5sya80/screen-guard/tempered-glass/o/v/n/apple-macbook-air-m1-13-3-inch-lightwings-original-imag3gh5xftgbpg3.jpeg?q=70",
    "rating": { "rate": 4.7, "count": 8146 }
  },
  {
    "id": 6,
    "title": "DELL Inspiron Athlon Dual Core 3050U - (8 GB/256 GB SSD/Windows 11 Home) Inspiron 3525 Notebook  (15.6 Inch, Carbon Black, 1.68 Kg, With MS Office)",
    "price": "₹30,929",
    "category": "electronics",
    "type": "computer",
    "description": [
      "Processor: AMD Athlon Silver 3050U (2.30 GHz up to 3.20 GHz)",
      "RAM & Storage: 8GB DDR4 & 256GB SSD",
      "Display: 15.6inch HD AG Narrow Border",
      "Software: Win 11 + Office H&S 2021",
      "Ports: 2 USB 3.2 Gen 1 ports, 1 USB 2.0 port, 1 Headset jack, 1 HDMI 1.4 port*, 1 SD 3.0 card slot",
      "WiFi & BT: 802.11ac 1x1 WiFi and Bluetooth"
    ],
    "image": "https://rukminim1.flixcart.com/image/416/416/ksez24w0/computer/h/8/9/rmnb1001-thin-and-light-laptop-realme-original-imag5zhgcstmjbxg.jpeg?q=70",
    "rating": { "rate": 4.2, "count": 835 }
  },

  {
    "id": 7,
    "title": "realme C30s (Stripe Blue, 32 GB)",
    "price": "₹7,499",
    "category": "mobiles",
    "type": "electronics",
    "description": [
      "2 GB RAM | 32 GB ROM | Expandable Upto 1 TB",
      "16.51 cm (6.5 inch) HD+ Display",
      "8MP Rear Camera | 5MP Front Camera",
      "5000 mAh Lithium Ion Battery",
      "Unisoc SC9863A/ Unisoc SC9863A1 Processor",
      "1 Year Manufacturer Warranty for Phone and 6 Months Warranty for In-Box Accessories"
    ],
    "image": "https://rukminim1.flixcart.com/image/312/312/xif0q/mobile/b/o/n/-original-imagg3myvj6f3pez.jpeg?q=70",
    "rating": { "rate": 4.4, "count": 787 }
  },
  {
    "id": 8,
    "title": "POCO C31 (Royal Blue, 64 GB)",
    "price": "₹9,499",
    "category": "mobiles",
    "type": "electronics",
    "description": [
      "4 GB RAM | 64 GB ROM | Expandable Upto 512 GB",
      "16.59 cm (6.53 inch) HD+ Display",
      "13MP + 2MP + 2MP | 5MP Front Camera",
      "5000 mAh Lithium-ion Polymer Battery",
      "MediaTek G35 Processor",
      "1 Year Warranty for Handset, 6 Months for Accessories"
    ],
    "image": "https://rukminim1.flixcart.com/image/312/312/ku4ezrk0/mobile/p/e/4/c31-mzb0a0jin-poco-original-imag7bzqxgdhgf2n.jpeg?q=70",
    "rating": { "rate": 4.3, "count": 161140 }
  },
  {
    "id": 9,
    "title": "realme Narzo 30 Pro 5G (Blade Silver, 128 GB)",
    "price": "₹19,999",
    "category": "mobiles",
    "type": "electronics",
    "description": [
      "8 GB RAM | 128 GB ROM | Expandable Upto 256 GB",
      "16.51 cm (6.5 inch) Full HD+ Display",
      "48MP + 8MP + 2MP | 16MP Front Camera",
      "5000 mAh Battery",
      "MediaTek Dimensity 800U Processor",
      "1 Year Warranty for Mobile and 6 Months for Accessories"
    ],
    "image": "https://rukminim1.flixcart.com/image/312/312/klgx0280/mobile/c/c/s/narzo-30-pro-5g-rmx2117-realme-original-imagyhbkbaa5pjb2.jpeg?q=70",
    "rating": { "rate": 4.3, "count": 28239 }
  },
  {
    "id": 10,
    "title": "OPPO K10 (Blue Flame, 128 GB)",
    "price": "₹13,990",
    "category": "mobiles",
    "type": "electronics",
    "description": [
      "6 GB RAM | 128 GB ROM | Expandable Upto 1 TB",
      "16.74 cm (6.59 inch) Full HD+ Display",
      "50MP + 2MP + 2MP | 16MP Front Camera",
      "5000 mAh Lithium Ion Battery",
      "Qualcomm Snapdragon 680 Processor",
      "33W SUPERVOOC Charger | Dual Speaker | Super Adaptive Refresh Rate"
    ],
    "image": "https://rukminim1.flixcart.com/image/312/312/l2jcccw0/mobile/h/x/3/-original-imagduwqakhhkrse.jpeg?q=70",
    "rating": { "rate": 4.4, "count": 76196 }
  },
  {
    "id": 11,
    "title": "vivo T1 44W (Starry Sky, 128 GB)",
    "price": "₹15,999",
    "category": "mobiles",
    "type": "electronics",
    "description": [
      "6 GB RAM | 128 GB ROM | Expandable Upto 1 TB",
      "16.36 cm (6.44 inch) Full HD+ AMOLED Display",
      "50MP + 2MP + 2MP | 16MP Front Camera",
      "5000 mAh Lithium Battery",
      "Qualcomm Snapdragon 680 Processor",
      "1 Year Handset and 6 Months Accessories"
    ],
    "image": "https://rukminim1.flixcart.com/image/312/312/l2p23rk0/mobile/s/4/3/-original-imagdznhcbdfwfud.jpeg?q=70",
    "rating": { "rate": 4.4, "count": 36128 }
  },
  {
    "id": 12,
    "title": "Striped Men Round Neck Blue T-Shirt",
    "price": "₹219",
    "category": "fashion",
    "type": "man",
    "description": [
      "Type:Round Neck",
      "Sleeve:Full sleeve",
      "Fit:Regular",
      "Fabric:Cotton Blend",
      "Neck Type:Round Neck",
      "Pack of:1"
    ],
    "image": "https://rukminim1.flixcart.com/image/832/832/kyxb9u80/t-shirt/k/n/y/xl-t67-nbwh-eyebogler-original-imagbfyc3rkzaj2y.jpeg?q=70",
    "rating": { "rate": 4, "count": 2669 }
  },
  {
    "id": 13,
    "title": "Solid Men Mandarin Collar Black, Grey T-Shirt",
    "price": "₹309",
    "category": "fashion",
    "type": "man",
    "description": [
      "Type:Mandarin Collar",
      "Sleeve:Full sleeve",
      "Fit:Regular",
      "Fabric:Cotton Blend",
      "Neck Type:Round Neck",
      "Pack of:1"
    ],
    "image": "https://rukminim1.flixcart.com/image/832/832/kyrlifk0/t-shirt/0/u/s/l-tdgyblhenful-d37-tripr-original-imagax9x6pkgwwg9.jpeg?q=70",
    "rating": { "rate": 3.9, "count": 90189 }
  },
  {
    "id": 14,
    "title": "Casual Regular Sleeves Solid Women Red Top",
    "price": "₹199",
    "category": "fashion",
    "type": "woman",
    "description": [
      "Neck Type:Round Neck",
      "Sleeve:Regular sleeve",
      "Sleeve Length:Short Sleeve",
      "Fit:Slim",
      "Fabric:Cotton Blend",
      "Type:Regular Top"
    ],
    "image": "https://rukminim1.flixcart.com/image/832/832/xif0q/shopsy-t-shirt/e/g/5/xl-46798456-singham-original-imagczmnxkypnxen.jpeg?q=70",
    "rating": { "rate": 4.1, "count": 2288 }
  },
  {
    "id": 15,
    "title": "Casual Regular Sleeves Printed Women Yellow Top",
    "price": "₹329",
    "category": "fashion",
    "type": "woman",
    "description": [
      "Neck Type:Round Neck",
      "Sleeve:Regular sleeve",
      "Fit:Regular",
      "Type:Crop Top",
      "Pattern:Printed",
      "Color:Yellow"
    ],
    "image": "https://rukminim1.flixcart.com/image/832/832/ks0onm80/kurta/a/7/m/l-dmpa316-dmp-fashion-original-imag5zc7venj9thq.jpeg?q=70",
    "rating": { "rate": 4.1, "count": 12056 }
  },
  {
    "id": 16,
    "title": "Men Regular Fit Solid Casual Shirt",
    "price": "₹629",
    "category": "fashion",
    "type": "man",
    "description": [
      "Closure:Button",
      "Fit:Regular",
      "Fabric:Cotton Blend",
      "Sleeve:Full sleeve",
      "Pattern:Solid",
      "Pack of:1"
    ],
    "image": "https://rukminim1.flixcart.com/image/832/832/xif0q/shirt/3/x/s/s-tutr-den-sng-01-tortuga-original-imaganfdtetqmwkt-bb.jpeg?q=70",
    "rating": { "rate": 4, "count": 8231 }
  },
  {
    "id": 17,
    "title": "CLOTHOLOGY 144 TC Cotton Double Printed Flat Bedsheet  (Pack of 1, Multicolor)",
    "price": "₹329",
    "category": "home",
    "type": "",
    "description": [
      "Brand:Clothology",
      "Color:Multiicolor",
      "Type:Flat",
      "Size:Double",
      "Material:Cotton",
      "Collection:Jaipuri Prints"
    ],
    "image": "https://rukminim1.flixcart.com/image/416/416/xif0q/bedsheet/s/r/m/-original-imaggvzfagqxxhjr.jpeg?q=70",
    "rating": { "rate": 4, "count": 12989 }
  },
  {
    "id": 18,
    "title": "allmart Engineered Wood Office Table  (Free Standing, Finish Color - brown, Pre-assembled)",
    "price": "₹1,549",
    "category": "home",
    "type": "furniture",
    "description": [
      "Material:MDF",
      "Configuration:Straight",
      "Height x Width: 76.2 cm x 91.44 cm (2 ft 6 in x 3 ft)",
      "Pre Assembled (Ready to Use)",
      "1 year Warranty available for manufacturing defects"
    ],
    "image": "https://rukminim1.flixcart.com/image/416/416/k6l2vm80/computer-table/z/y/a/mdf-fk-28-limraz-furniture-brown-original-imafzy9ytkbegxg4.jpeg?q=70",
    "rating": { "rate": 4.4, "count": 34 }
  },
  {
    "id": 19,
    "title": "Farmley Premium California Almonds  (100 g)",
    "price": "₹59",
    "category": "grocery",
    "type": "food",
    "description": ["100 g", "Expiry 27 Feb 2023", "Current Price : ₹69"],
    "image": "https://rukminim1.flixcart.com/image/416/416/kjvrdzk0/nut-dry-fruit/c/z/n/100-premium-california-pouch-farmley-original-imafzcqwnmnzr3xp.jpeg?q=70",
    "rating": { "rate": 4.3, "count": 1536 }
  },
  {
    "id": 20,
    "title": "ORION Choco Pie Cream Filled  (56 g)",
    "price": "₹1",
    "category": "grocery",
    "type": "food",
    "description": ["56g", "Expiry 24 Sep 2023", "Current Price : ₹25"],
    "image": "https://rukminim1.flixcart.com/image/416/416/ktop5e80/cookie-biscuit/i/f/g/56-choco-pie-1-orion-original-imag6z5atamtjjd7.jpeg?q=70",
    "rating": { "rate": 3.4, "count": 453 }
  },
  {
    "id": 21,
    "title": "Happilo Rose Almonds Healthy Mini Dry Fruit Bar Nutrition Bars",
    "price": "₹1",
    "category": "grocery",
    "type": "food",
    "description": ["15g", "Expiry 5 Apr 2023"],
    "image": "https://rukminim1.flixcart.com/image/416/416/xif0q/protein-supplement/h/5/m/nutrition-bars-rose-almonds-healthy-mini-dry-fruit-bar-15g-original-imaggjhbfyrjznp8.jpeg?q=70",
    "rating": { "rate": 4, "count": 10 }
  },
  {
    "id": 22,
    "title": "Deskio Home Office Computer Desk with Shelves | Modern Sturdy Wood Finish Table Engineered Wood Office Table  (Free Standing, Finish Color - Dark brown, DIY(Do-It-Yourself)",
    "price": "₹7,999",
    "category": "home",
    "type": "furniture",
    "description": [
      "Material: Particle Board",
      "Configuration: Straight",
      "Height x Width: 108 cm x 136 cm (3 ft 6 in x 4 ft 5 in)",
      "Storage Included",
      "DIY - Basic assembly to be done with simple tools by the customer, comes with instructions.",
      "Replacement policy of damaged part or defective part in transit"
    ],
    "image": "https://rukminim1.flixcart.com/image/416/416/ky3b0y80/office-study-table/x/z/9/106-particle-board-engineered-wood-home-office-computer-desk-original-imagaegykpgy8yyt.jpeg?q=70",
    "rating": { "rate": 4.6, "count": 20 }
  },
  {
    "id": 23,
    "title": "SONY Bravia 125.7 cm (50 inch) Ultra HD (4K) LED Smart Google TV  (KD - 50X74K)",
    "price": "₹52,999",
    "category": "appliances",
    "type": "type",
    "description": [
      "Operating System: Google TV",
      "Ultra HD (4K) 3840 x 2160 Pixels",
      "1 year Comprehensive warranty by the manufacture from the date of purchase | Contact Brand toll free number for assistance and provide product's model name and seller's details mentioned on your invoice. The service center will allot you a convenient slot for the service."
    ],
    "image": "https://rukminim1.flixcart.com/image/416/416/l3bx5e80/television/0/w/q/-original-imageh37h34rehqf.jpeg?q=70",
    "rating": { "rate": 4.6, "count": 2466 }
  },

  {
    "id": 24,
    "title": "CARRIER 1.5 Ton 5 Star Split Inverter AC - White  (18K ESTER DXi INVERTER R32 SPLIT AC_CAI18ES5R32F0, Copper Condenser)",
    "price": "₹39,999",
    "category": "appliances",
    "type": "",
    "description": [
      "Power Consumption: 1260 W",
      "Room Size: 111 to 150 sqft",
      "1 Year Warranty on Product and 10 Years on Compressor"
    ],
    "image": "https://rukminim1.flixcart.com/image/416/416/xif0q/air-conditioner-new/h/5/i/-original-imagha8sgzfjhvgk.jpeg?q=70",
    "rating": { "rate": 4, "count": 10 }
  },
  {
    "id": 25,
    "title": "Whirlpool 360 L Frost Free Double Door 3 Star Convertible Refrigerator  (Cool Illusia, IF INV CNV 375 COOL ILLUSIA (3S) N)",
    "price": "₹37,150",
    "category": "appliances",
    "type": "",
    "description": [
      "360 L : Good for families of 3-5 members",
      "Intellisense Inverter Compressor",
      "3 Star : For Energy savings up to 35%"
    ],
    "image": "https://rukminim1.flixcart.com/image/416/416/kkvhea80/refrigerator-new/i/6/x/if-inv-cnv-375-cool-illusia-3s-3-2020-whirlpool-original-imagy4hbhkztt8an.jpeg?q=70",
    "rating": { "rate": 4.3, "count": 792 }
  },
  {
    "id": 26,
    "title": "Minimalist 5% Aquaporin Booster with Hyaluronic Acid for Dry Skin Face Wash  (100 ml)",
    "price": "₹284",
    "category": "beauty",
    "type": "",
    "description": [
      "For Men and Women",
      "Liquid Based",
      "For Dry skin, Normal skin",
      "Applied For: Cleansing, Anti-dullness, Deep Cleansing, Nourishment & Moisturization, Refreshing"
    ],
    "image": "https://rukminim1.flixcart.com/image/416/416/l3rmzrk0/face-wash/p/v/b/100-5-aquaporin-booster-face-wash-with-hyaluronic-acid-for-dry-original-imagetgsjey2dhe6.jpeg?q=70",
    "rating": { "rate": 4.4, "count": 353 }
  },
  {
    "id": 27,
    "title": "Parachute Pure Coconut Hair Oil  (1200 ml)",
    "price": "₹504",
    "category": "beauty",
    "type": "",
    "description": [
      "For Men and Women",
      "Suitable for All Hair Types",
      "Applied For Hair Growth, Hair Strengthening"
    ],
    "image": "https://rukminim1.flixcart.com/image/416/416/kavefm80/hair-oil/m/7/j/1200-pure-coconut-parachute-original-imafsczgfgjnnyzz.jpeg?q=70",
    "rating": { "rate": 4.5, "count": 94970 }
  }
]
